…
``` r
brfss_smart2010 %>%
  group_by(year,locationabbr) %>%
  summarize(n_sites=n_distinct(locationdesc)) %>%
  filter (year %in% c("2002","2010")) %>%
  pivot_wider(names_from=year,values_from=n_sites)
```

    ## # A tibble: 50 x 3
    ##    locationabbr `2002` `2010`
    ##    <chr>         <int>  <int>
    ##  1 AK                1     NA
    ##  2 AL                1      3
    ##  3 AR                1      3
    ##  4 AZ                2      3
    ##  5 CA                1     12
    ##  6 CO                4      7
    ##  7 CT                7      5
    ##  8 DC                1      1
    ##  9 DE                3      3
    ## 10 FL                7     41
    ## # … with 40 more rows
…
